sim_v45/ifa_phi_p8.vcd
$date
	Sat Jul 18 18:32:52 2026
$end
$version
	Icarus Verilog
$end
$timescale
	1ps
$end
$scope module tb_ifa_phi_p8 $end
$var wire 8 ! phi_o [7:0] $end
$var reg 8 " binary_i [7:0] $end
$var reg 256 # seen_outputs [255:0] $end
$var integer 32 $ tests_failed [31:0] $end
$var integer 32 % tests_run [31:0] $end
$scope module dut $end
$var wire 8 & binary_i [7:0] $end
$var reg 8 ' phi_o [7:0] $end
$upscope $end
$scope task check_transform $end
$upscope $end
$upscope $end
$enddefinitions $end
$comment Show the parameter values. $end
$dumpall
$end
#0
$dumpvars
b1010101 '
b0 &
b0 %
b0 $
b0 #
b0 "
b1010101 !
$end
#1000
b1010100 !
b1010100 '
b1 "
b1 &
b10000000000000000000000000000000000000000000000000000000000000000000000000000000000000 #
b1 %
#2000
b1010110 !
b1010110 '
b10 "
b10 &
b11000000000000000000000000000000000000000000000000000000000000000000000000000000000000 #
b10 %
#3000
b1010111 !
b1010111 '
b11 "
b11 &
b111000000000000000000000000000000000000000000000000000000000000000000000000000000000000 #
b11 %
#4000
b1010001 !
b1010001 '
b100 "
b100 &
b1111000000000000000000000000000000000000000000000000000000000000000000000000000000000000 #
b100 %
#5000
b1010000 !
b1010000 '
b101 "
b101 &
b1111001000000000000000000000000000000000000000000000000000000000000000000000000000000000 #
b101 %
#6000
b1010010 !
b1010010 '
b110 "
b110 &
b1111001100000000000000000000000000000000000000000000000000000000000000000000000000000000 #
b110 %
#7000
b1010011 !
b1010011 '
b111 "
b111 &
b1111011100000000000000000000000000000000000000000000000000000000000000000000000000000000 #
b111 %
#8000
b1011001 !
b1011001 '
b1000 "
b1000 &
b1111111100000000000000000000000000000000000000000000000000000000000000000000000000000000 #
b1000 %
#9000
b1011000 !
b1011000 '
b1001 "
b1001 &
b101111111100000000000000000000000000000000000000000000000000000000000000000000000000000000 #
b1001 %
#10000
b1011010 !
b1011010 '
b1010 "
b1010 &
b111111111100000000000000000000000000000000000000000000000000000000000000000000000000000000 #
b1010 %
#11000
b1011011 !
b1011011 '
b1011 "
b1011 &
b1111111111100000000000000000000000000000000000000000000000000000000000000000000000000000000 #
b1011 %
#12000
b1011101 !
b1011101 '
b1100 "
b1100 &
b11111111111100000000000000000000000000000000000000000000000000000000000000000000000000000000 #
b1100 %
#13000
b1011100 !
b1011100 '
b1101 "
b1101 &
b1011111111111100000000000000000000000000000000000000000000000000000000000000000000000000000000 #
b1101 %
#14000
b1011110 !
b1011110 '
b1110 "
b1110 &
b1111111111111100000000000000000000000000000000000000000000000000000000000000000000000000000000 #
b1110 %
#15000
b1011111 !
b1011111 '
b1111 "
b1111 &
b11111111111111100000000000000000000000000000000000000000000000000000000000000000000000000000000 #
b1111 %
#16000
b1000101 !
b1000101 '
b10000 "
b10000 &
b111111111111111100000000000000000000000000000000000000000000000000000000000000000000000000000000 #
b10000 %
#17000
b1000100 !
b1000100 '
b10001 "
b10001 &
b111111111111111100000000001000000000000000000000000000000000000000000000000000000000000000000000 #
b10001 %
#18000
b1000110 !
b1000110 '
b10010 "
b10010 &
b111111111111111100000000001100000000000000000000000000000000000000000000000000000000000000000000 #
b10010 %
#19000
b1000111 !
b1000111 '
b10011 "
b10011 &
b111111111111111100000000011100000000000000000000000000000000000000000000000000000000000000000000 #
b10011 %
#20000
b1000001 !
b1000001 '
b10100 "
b10100 &
b111111111111111100000000111100000000000000000000000000000000000000000000000000000000000000000000 #
b10100 %
#21000
b1000000 !
b1000000 '
b10101 "
b10101 &
b111111111111111100000000111100100000000000000000000000000000000000000000000000000000000000000000 #
b10101 %
#22000
b1000010 !
b1000010 '
b10110 "
b10110 &
b111111111111111100000000111100110000000000000000000000000000000000000000000000000000000000000000 #
b10110 %
#23000
b1000011 !
b1000011 '
b10111 "
b10111 &
b111111111111111100000000111101110000000000000000000000000000000000000000000000000000000000000000 #
b10111 %
#24000
b1001001 !
b1001001 '
b11000 "
b11000 &
b111111111111111100000000111111110000000000000000000000000000000000000000000000000000000000000000 #
b11000 %
#25000
b1001000 !
b1001000 '
b11001 "
b11001 &
b111111111111111100000010111111110000000000000000000000000000000000000000000000000000000000000000 #
b11001 %
#26000
b1001010 !
b1001010 '
b11010 "
b11010 &
b111111111111111100000011111111110000000000000000000000000000000000000000000000000000000000000000 #
b11010 %
#27000
b1001011 !
b1001011 '
b11011 "
b11011 &
b111111111111111100000111111111110000000000000000000000000000000000000000000000000000000000000000 #
b11011 %
#28000
b1001101 !
b1001101 '
b11100 "
b11100 &
b111111111111111100001111111111110000000000000000000000000000000000000000000000000000000000000000 #
b11100 %
#29000
b1001100 !
b1001100 '
b11101 "
b11101 &
b111111111111111100101111111111110000000000000000000000000000000000000000000000000000000000000000 #
b11101 %
#30000
b1001110 !
b1001110 '
b11110 "
b11110 &
b111111111111111100111111111111110000000000000000000000000000000000000000000000000000000000000000 #
b11110 %
#31000
b1001111 !
b1001111 '
b11111 "
b11111 &
b111111111111111101111111111111110000000000000000000000000000000000000000000000000000000000000000 #
b11111 %
#32000
b1100101 !
b1100101 '
b100000 "
b100000 &
b111111111111111111111111111111110000000000000000000000000000000000000000000000000000000000000000 #
b100000 %
#33000
b1100100 !
b1100100 '
b100001 "
b100001 &
b100000111111111111111111111111111111110000000000000000000000000000000000000000000000000000000000000000 #
b100001 %
#34000
b1100110 !
b1100110 '
b100010 "
b100010 &
b110000111111111111111111111111111111110000000000000000000000000000000000000000000000000000000000000000 #
b100010 %
#35000
b1100111 !
b1100111 '
b100011 "
b100011 &
b1110000111111111111111111111111111111110000000000000000000000000000000000000000000000000000000000000000 #
b100011 %
#36000
b1100001 !
b1100001 '
b100100 "
b100100 &
b11110000111111111111111111111111111111110000000000000000000000000000000000000000000000000000000000000000 #
b100100 %
#37000
b1100000 !
b1100000 '
b100101 "
b100101 &
b11110010111111111111111111111111111111110000000000000000000000000000000000000000000000000000000000000000 #
b100101 %
#38000
b1100010 !
b1100010 '
b100110 "
b100110 &
b11110011111111111111111111111111111111110000000000000000000000000000000000000000000000000000000000000000 #
b100110 %
#39000
b1100011 !
b1100011 '
b100111 "
b100111 &
b11110111111111111111111111111111111111110000000000000000000000000000000000000000000000000000000000000000 #
b100111 %
#40000
b1101001 !
b1101001 '
b101000 "
b101000 &
b11111111111111111111111111111111111111110000000000000000000000000000000000000000000000000000000000000000 #
b101000 %
#41000
b1101000 !
b1101000 '
b101001 "
b101001 &
b1011111111111111111111111111111111111111110000000000000000000000000000000000000000000000000000000000000000 #
b101001 %
#42000
b1101010 !
b1101010 '
b101010 "
b101010 &
b1111111111111111111111111111111111111111110000000000000000000000000000000000000000000000000000000000000000 #
b101010 %
#43000
b1101011 !
b1101011 '
b101011 "
b101011 &
b11111111111111111111111111111111111111111110000000000000000000000000000000000000000000000000000000000000000 #
b101011 %
#44000
b1101101 !
b1101101 '
b101100 "
b101100 &
b111111111111111111111111111111111111111111110000000000000000000000000000000000000000000000000000000000000000 #
b101100 %
#45000
b1101100 !
b1101100 '
b101101 "
b101101 &
b10111111111111111111111111111111111111111111110000000000000000000000000000000000000000000000000000000000000000 #
b101101 %
#46000
b1101110 !
b1101110 '
b101110 "
b101110 &
b11111111111111111111111111111111111111111111110000000000000000000000000000000000000000000000000000000000000000 #
b101110 %
#47000
b1101111 !
b1101111 '
b101111 "
b101111 &
b111111111111111111111111111111111111111111111110000000000000000000000000000000000000000000000000000000000000000 #
b101111 %
#48000
b1110101 !
b1110101 '
b110000 "
b110000 &
b1111111111111111111111111111111111111111111111110000000000000000000000000000000000000000000000000000000000000000 #
b110000 %
#49000
b1110100 !
b1110100 '
b110001 "
b110001 &
b1000001111111111111111111111111111111111111111111111110000000000000000000000000000000000000000000000000000000000000000 #
b110001 %
#50000
b1110110 !
b1110110 '
b110010 "
b110010 &
b1100001111111111111111111111111111111111111111111111110000000000000000000000000000000000000000000000000000000000000000 #
b110010 %
#51000
b1110111 !
b1110111 '
b110011 "
b110011 &
b11100001111111111111111111111111111111111111111111111110000000000000000000000000000000000000000000000000000000000000000 #
b110011 %
#52000
b1110001 !
b1110001 '
b110100 "
b110100 &
b111100001111111111111111111111111111111111111111111111110000000000000000000000000000000000000000000000000000000000000000 #
b110100 %
#53000
b1110000 !
b1110000 '
b110101 "
b110101 &
b111100101111111111111111111111111111111111111111111111110000000000000000000000000000000000000000000000000000000000000000 #
b110101 %
#54000
b1110010 !
b1110010 '
b110110 "
b110110 &
b111100111111111111111111111111111111111111111111111111110000000000000000000000000000000000000000000000000000000000000000 #
b110110 %
#55000
b1110011 !
b1110011 '
b110111 "
b110111 &
b111101111111111111111111111111111111111111111111111111110000000000000000000000000000000000000000000000000000000000000000 #
b110111 %
#56000
b1111001 !
b1111001 '
b111000 "
b111000 &
b111111111111111111111111111111111111111111111111111111110000000000000000000000000000000000000000000000000000000000000000 #
b111000 %
#57000
b1111000 !
b1111000 '
b111001 "
b111001 &
b10111111111111111111111111111111111111111111111111111111110000000000000000000000000000000000000000000000000000000000000000 #
b111001 %
#58000
b1111010 !
b1111010 '
b111010 "
b111010 &
b11111111111111111111111111111111111111111111111111111111110000000000000000000000000000000000000000000000000000000000000000 #
b111010 %
#59000
b1111011 !
b1111011 '
b111011 "
b111011 &
b111111111111111111111111111111111111111111111111111111111110000000000000000000000000000000000000000000000000000000000000000 #
b111011 %
#60000
b1111101 !
b1111101 '
b111100 "
b111100 &
b1111111111111111111111111111111111111111111111111111111111110000000000000000000000000000000000000000000000000000000000000000 #
b111100 %
#61000
b1111100 !
b1111100 '
b111101 "
b111101 &
b101111111111111111111111111111111111111111111111111111111111110000000000000000000000000000000000000000000000000000000000000000 #
b111101 %
#62000
b1111110 !
b1111110 '
b111110 "
b111110 &
b111111111111111111111111111111111111111111111111111111111111110000000000000000000000000000000000000000000000000000000000000000 #
b111110 %
#63000
b1111111 !
b1111111 '
b111111 "
b111111 &
b1111111111111111111111111111111111111111111111111111111111111110000000000000000000000000000000000000000000000000000000000000000 #
b111111 %
#64000
b10101 !
b10101 '
b1000000 "
b1000000 &
b11111111111111111111111111111111111111111111111111111111111111110000000000000000000000000000000000000000000000000000000000000000 #
b1000000 %
#65000
b10100 !
b10100 '
b1000001 "
b1000001 &
b11111111111111111111111111111111111111111111111111111111111111110000000000000000000000000000000000000000001000000000000000000000 #
b1000001 %
#66000
b10110 !
b10110 '
b1000010 "
b1000010 &
b11111111111111111111111111111111111111111111111111111111111111110000000000000000000000000000000000000000001100000000000000000000 #
b1000010 %
#67000
b10111 !
b10111 '
b1000011 "
b1000011 &
b11111111111111111111111111111111111111111111111111111111111111110000000000000000000000000000000000000000011100000000000000000000 #
b1000011 %
#68000
b10001 !
b10001 '
b1000100 "
b1000100 &
b11111111111111111111111111111111111111111111111111111111111111110000000000000000000000000000000000000000111100000000000000000000 #
b1000100 %
#69000
b10000 !
b10000 '
b1000101 "
b1000101 &
b11111111111111111111111111111111111111111111111111111111111111110000000000000000000000000000000000000000111100100000000000000000 #
b1000101 %
#70000
b10010 !
b10010 '
b1000110 "
b1000110 &
b11111111111111111111111111111111111111111111111111111111111111110000000000000000000000000000000000000000111100110000000000000000 #
b1000110 %
#71000
b10011 !
b10011 '
b1000111 "
b1000111 &
b11111111111111111111111111111111111111111111111111111111111111110000000000000000000000000000000000000000111101110000000000000000 #
b1000111 %
#72000
b11001 !
b11001 '
b1001000 "
b1001000 &
b11111111111111111111111111111111111111111111111111111111111111110000000000000000000000000000000000000000111111110000000000000000 #
b1001000 %
#73000
b11000 !
b11000 '
b1001001 "
b1001001 &
b11111111111111111111111111111111111111111111111111111111111111110000000000000000000000000000000000000010111111110000000000000000 #
b1001001 %
#74000
b11010 !
b11010 '
b1001010 "
b1001010 &
b11111111111111111111111111111111111111111111111111111111111111110000000000000000000000000000000000000011111111110000000000000000 #
b1001010 %
#75000
b11011 !
b11011 '
b1001011 "
b1001011 &
b11111111111111111111111111111111111111111111111111111111111111110000000000000000000000000000000000000111111111110000000000000000 #
b1001011 %
#76000
b11101 !
b11101 '
b1001100 "
b1001100 &
b11111111111111111111111111111111111111111111111111111111111111110000000000000000000000000000000000001111111111110000000000000000 #
b1001100 %
#77000
b11100 !
b11100 '
b1001101 "
b1001101 &
b11111111111111111111111111111111111111111111111111111111111111110000000000000000000000000000000000101111111111110000000000000000 #
b1001101 %
#78000
b11110 !
b11110 '
b1001110 "
b1001110 &
b11111111111111111111111111111111111111111111111111111111111111110000000000000000000000000000000000111111111111110000000000000000 #
b1001110 %
#79000
b11111 !
b11111 '
b1001111 "
b1001111 &
b11111111111111111111111111111111111111111111111111111111111111110000000000000000000000000000000001111111111111110000000000000000 #
b1001111 %
#80000
b101 !
b101 '
b1010000 "
b1010000 &
b11111111111111111111111111111111111111111111111111111111111111110000000000000000000000000000000011111111111111110000000000000000 #
b1010000 %
#81000
b100 !
b100 '
b1010001 "
b1010001 &
b11111111111111111111111111111111111111111111111111111111111111110000000000000000000000000000000011111111111111110000000000100000 #
b1010001 %
#82000
b110 !
b110 '
b1010010 "
b1010010 &
b11111111111111111111111111111111111111111111111111111111111111110000000000000000000000000000000011111111111111110000000000110000 #
b1010010 %
#83000
b111 !
b111 '
b1010011 "
b1010011 &
b11111111111111111111111111111111111111111111111111111111111111110000000000000000000000000000000011111111111111110000000001110000 #
b1010011 %
#84000
b1 !
b1 '
b1010100 "
b1010100 &
b11111111111111111111111111111111111111111111111111111111111111110000000000000000000000000000000011111111111111110000000011110000 #
b1010100 %
#85000
b0 !
b0 '
b1010101 "
b1010101 &
b11111111111111111111111111111111111111111111111111111111111111110000000000000000000000000000000011111111111111110000000011110010 #
b1010101 %
#86000
b10 !
b10 '
b1010110 "
b1010110 &
b11111111111111111111111111111111111111111111111111111111111111110000000000000000000000000000000011111111111111110000000011110011 #
b1010110 %
#87000
b11 !
b11 '
b1010111 "
b1010111 &
b11111111111111111111111111111111111111111111111111111111111111110000000000000000000000000000000011111111111111110000000011110111 #
b1010111 %
#88000
b1001 !
b1001 '
b1011000 "
b1011000 &
b11111111111111111111111111111111111111111111111111111111111111110000000000000000000000000000000011111111111111110000000011111111 #
b1011000 %
#89000
b1000 !
b1000 '
b1011001 "
b1011001 &
b11111111111111111111111111111111111111111111111111111111111111110000000000000000000000000000000011111111111111110000001011111111 #
b1011001 %
#90000
b1010 !
b1010 '
b1011010 "
b1011010 &
b11111111111111111111111111111111111111111111111111111111111111110000000000000000000000000000000011111111111111110000001111111111 #
b1011010 %
#91000
b1011 !
b1011 '
b1011011 "
b1011011 &
b11111111111111111111111111111111111111111111111111111111111111110000000000000000000000000000000011111111111111110000011111111111 #
b1011011 %
#92000
b1101 !
b1101 '
b1011100 "
b1011100 &
b11111111111111111111111111111111111111111111111111111111111111110000000000000000000000000000000011111111111111110000111111111111 #
b1011100 %
#93000
b1100 !
b1100 '
b1011101 "
b1011101 &
b11111111111111111111111111111111111111111111111111111111111111110000000000000000000000000000000011111111111111110010111111111111 #
b1011101 %
#94000
b1110 !
b1110 '
b1011110 "
b1011110 &
b11111111111111111111111111111111111111111111111111111111111111110000000000000000000000000000000011111111111111110011111111111111 #
b1011110 %
#95000
b1111 !
b1111 '
b1011111 "
b1011111 &
b11111111111111111111111111111111111111111111111111111111111111110000000000000000000000000000000011111111111111110111111111111111 #
b1011111 %
#96000
b100101 !
b100101 '
b1100000 "
b1100000 &
b11111111111111111111111111111111111111111111111111111111111111110000000000000000000000000000000011111111111111111111111111111111 #
b1100000 %
#97000
b100100 !
b100100 '
b1100001 "
b1100001 &
b11111111111111111111111111111111111111111111111111111111111111110000000000000000000000000010000011111111111111111111111111111111 #
b1100001 %
#98000
b100110 !
b100110 '
b1100010 "
b1100010 &
b11111111111111111111111111111111111111111111111111111111111111110000000000000000000000000011000011111111111111111111111111111111 #
b1100010 %
#99000
b100111 !
b100111 '
b1100011 "
b1100011 &
b11111111111111111111111111111111111111111111111111111111111111110000000000000000000000000111000011111111111111111111111111111111 #
b1100011 %
#100000
b100001 !
b100001 '
b1100100 "
b1100100 &
b11111111111111111111111111111111111111111111111111111111111111110000000000000000000000001111000011111111111111111111111111111111 #
b1100100 %
#101000
b100000 !
b100000 '
b1100101 "
b1100101 &
b11111111111111111111111111111111111111111111111111111111111111110000000000000000000000001111001011111111111111111111111111111111 #
b1100101 %
#102000
b100010 !
b100010 '
b1100110 "
b1100110 &
b11111111111111111111111111111111111111111111111111111111111111110000000000000000000000001111001111111111111111111111111111111111 #
b1100110 %
#103000
b100011 !
b100011 '
b1100111 "
b1100111 &
b11111111111111111111111111111111111111111111111111111111111111110000000000000000000000001111011111111111111111111111111111111111 #
b1100111 %
#104000
b101001 !
b101001 '
b1101000 "
b1101000 &
b11111111111111111111111111111111111111111111111111111111111111110000000000000000000000001111111111111111111111111111111111111111 #
b1101000 %
#105000
b101000 !
b101000 '
b1101001 "
b1101001 &
b11111111111111111111111111111111111111111111111111111111111111110000000000000000000000101111111111111111111111111111111111111111 #
b1101001 %
#106000
b101010 !
b101010 '
b1101010 "
b1101010 &
b11111111111111111111111111111111111111111111111111111111111111110000000000000000000000111111111111111111111111111111111111111111 #
b1101010 %
#107000
b101011 !
b101011 '
b1101011 "
b1101011 &
b11111111111111111111111111111111111111111111111111111111111111110000000000000000000001111111111111111111111111111111111111111111 #
b1101011 %
#108000
b101101 !
b101101 '
b1101100 "
b1101100 &
b11111111111111111111111111111111111111111111111111111111111111110000000000000000000011111111111111111111111111111111111111111111 #
b1101100 %
#109000
b101100 !
b101100 '
b1101101 "
b1101101 &
b11111111111111111111111111111111111111111111111111111111111111110000000000000000001011111111111111111111111111111111111111111111 #
b1101101 %
#110000
b101110 !
b101110 '
b1101110 "
b1101110 &
b11111111111111111111111111111111111111111111111111111111111111110000000000000000001111111111111111111111111111111111111111111111 #
b1101110 %
#111000
b101111 !
b101111 '
b1101111 "
b1101111 &
b11111111111111111111111111111111111111111111111111111111111111110000000000000000011111111111111111111111111111111111111111111111 #
b1101111 %
#112000
b110101 !
b110101 '
b1110000 "
b1110000 &
b11111111111111111111111111111111111111111111111111111111111111110000000000000000111111111111111111111111111111111111111111111111 #
b1110000 %
#113000
b110100 !
b110100 '
b1110001 "
b1110001 &
b11111111111111111111111111111111111111111111111111111111111111110000000000100000111111111111111111111111111111111111111111111111 #
b1110001 %
#114000
b110110 !
b110110 '
b1110010 "
b1110010 &
b11111111111111111111111111111111111111111111111111111111111111110000000000110000111111111111111111111111111111111111111111111111 #
b1110010 %
#115000
b110111 !
b110111 '
b1110011 "
b1110011 &
b11111111111111111111111111111111111111111111111111111111111111110000000001110000111111111111111111111111111111111111111111111111 #
b1110011 %
#116000
b110001 !
b110001 '
b1110100 "
b1110100 &
b11111111111111111111111111111111111111111111111111111111111111110000000011110000111111111111111111111111111111111111111111111111 #
b1110100 %
#117000
b110000 !
b110000 '
b1110101 "
b1110101 &
b11111111111111111111111111111111111111111111111111111111111111110000000011110010111111111111111111111111111111111111111111111111 #
b1110101 %
#118000
b110010 !
b110010 '
b1110110 "
b1110110 &
b11111111111111111111111111111111111111111111111111111111111111110000000011110011111111111111111111111111111111111111111111111111 #
b1110110 %
#119000
b110011 !
b110011 '
b1110111 "
b1110111 &
b11111111111111111111111111111111111111111111111111111111111111110000000011110111111111111111111111111111111111111111111111111111 #
b1110111 %
#120000
b111001 !
b111001 '
b1111000 "
b1111000 &
b11111111111111111111111111111111111111111111111111111111111111110000000011111111111111111111111111111111111111111111111111111111 #
b1111000 %
#121000
b111000 !
b111000 '
b1111001 "
b1111001 &
b11111111111111111111111111111111111111111111111111111111111111110000001011111111111111111111111111111111111111111111111111111111 #
b1111001 %
#122000
b111010 !
b111010 '
b1111010 "
b1111010 &
b11111111111111111111111111111111111111111111111111111111111111110000001111111111111111111111111111111111111111111111111111111111 #
b1111010 %
#123000
b111011 !
b111011 '
b1111011 "
b1111011 &
b11111111111111111111111111111111111111111111111111111111111111110000011111111111111111111111111111111111111111111111111111111111 #
b1111011 %
#124000
b111101 !
b111101 '
b1111100 "
b1111100 &
b11111111111111111111111111111111111111111111111111111111111111110000111111111111111111111111111111111111111111111111111111111111 #
b1111100 %
#125000
b111100 !
b111100 '
b1111101 "
b1111101 &
b11111111111111111111111111111111111111111111111111111111111111110010111111111111111111111111111111111111111111111111111111111111 #
b1111101 %
#126000
b111110 !
b111110 '
b1111110 "
b1111110 &
b11111111111111111111111111111111111111111111111111111111111111110011111111111111111111111111111111111111111111111111111111111111 #
b1111110 %
#127000
b111111 !
b111111 '
b1111111 "
b1111111 &
b11111111111111111111111111111111111111111111111111111111111111110111111111111111111111111111111111111111111111111111111111111111 #
b1111111 %
#128000
b10010101 !
b10010101 '
b10000000 "
b10000000 &
b11111111111111111111111111111111111111111111111111111111111111111111111111111111111111111111111111111111111111111111111111111111 #
b10000000 %
#129000
b10010100 !
b10010100 '
b10000001 "
b10000001 &
b100000000000000000000011111111111111111111111111111111111111111111111111111111111111111111111111111111111111111111111111111111111111111111111111111111 #
b10000001 %
#130000
b10010110 !
b10010110 '
b10000010 "
b10000010 &
b110000000000000000000011111111111111111111111111111111111111111111111111111111111111111111111111111111111111111111111111111111111111111111111111111111 #
b10000010 %
#131000
b10010111 !
b10010111 '
b10000011 "
b10000011 &
b1110000000000000000000011111111111111111111111111111111111111111111111111111111111111111111111111111111111111111111111111111111111111111111111111111111 #
b10000011 %
#132000
b10010001 !
b10010001 '
b10000100 "
b10000100 &
b11110000000000000000000011111111111111111111111111111111111111111111111111111111111111111111111111111111111111111111111111111111111111111111111111111111 #
b10000100 %
#133000
b10010000 !
b10010000 '
b10000101 "
b10000101 &
b11110010000000000000000011111111111111111111111111111111111111111111111111111111111111111111111111111111111111111111111111111111111111111111111111111111 #
b10000101 %
#134000
b10010010 !
b10010010 '
b10000110 "
b10000110 &
b11110011000000000000000011111111111111111111111111111111111111111111111111111111111111111111111111111111111111111111111111111111111111111111111111111111 #
b10000110 %
#135000
b10010011 !
b10010011 '
b10000111 "
b10000111 &
b11110111000000000000000011111111111111111111111111111111111111111111111111111111111111111111111111111111111111111111111111111111111111111111111111111111 #
b10000111 %
#136000
b10011001 !
b10011001 '
b10001000 "
b10001000 &
b11111111000000000000000011111111111111111111111111111111111111111111111111111111111111111111111111111111111111111111111111111111111111111111111111111111 #
b10001000 %
#137000
b10011000 !
b10011000 '
b10001001 "
b10001001 &
b1011111111000000000000000011111111111111111111111111111111111111111111111111111111111111111111111111111111111111111111111111111111111111111111111111111111 #
b10001001 %
#138000
b10011010 !
b10011010 '
b10001010 "
b10001010 &
b1111111111000000000000000011111111111111111111111111111111111111111111111111111111111111111111111111111111111111111111111111111111111111111111111111111111 #
b10001010 %
#139000
b10011011 !
b10011011 '
b10001011 "
b10001011 &
b11111111111000000000000000011111111111111111111111111111111111111111111111111111111111111111111111111111111111111111111111111111111111111111111111111111111 #
b10001011 %
#140000
b10011101 !
b10011101 '
b10001100 "
b10001100 &
b111111111111000000000000000011111111111111111111111111111111111111111111111111111111111111111111111111111111111111111111111111111111111111111111111111111111 #
b10001100 %
#141000
b10011100 !
b10011100 '
b10001101 "
b10001101 &
b10111111111111000000000000000011111111111111111111111111111111111111111111111111111111111111111111111111111111111111111111111111111111111111111111111111111111 #
b10001101 %
#142000
b10011110 !
b10011110 '
b10001110 "
b10001110 &
b11111111111111000000000000000011111111111111111111111111111111111111111111111111111111111111111111111111111111111111111111111111111111111111111111111111111111 #
b10001110 %
#143000
b10011111 !
b10011111 '
b10001111 "
b10001111 &
b111111111111111000000000000000011111111111111111111111111111111111111111111111111111111111111111111111111111111111111111111111111111111111111111111111111111111 #
b10001111 %
#144000
b10000101 !
b10000101 '
b10010000 "
b10010000 &
b1111111111111111000000000000000011111111111111111111111111111111111111111111111111111111111111111111111111111111111111111111111111111111111111111111111111111111 #
b10010000 %
#145000
b10000100 !
b10000100 '
b10010001 "
b10010001 &
b1111111111111111000000000010000011111111111111111111111111111111111111111111111111111111111111111111111111111111111111111111111111111111111111111111111111111111 #
b10010001 %
#146000
b10000110 !
b10000110 '
b10010010 "
b10010010 &
b1111111111111111000000000011000011111111111111111111111111111111111111111111111111111111111111111111111111111111111111111111111111111111111111111111111111111111 #
b10010010 %
#147000
b10000111 !
b10000111 '
b10010011 "
b10010011 &
b1111111111111111000000000111000011111111111111111111111111111111111111111111111111111111111111111111111111111111111111111111111111111111111111111111111111111111 #
b10010011 %
#148000
b10000001 !
b10000001 '
b10010100 "
b10010100 &
b1111111111111111000000001111000011111111111111111111111111111111111111111111111111111111111111111111111111111111111111111111111111111111111111111111111111111111 #
b10010100 %
#149000
b10000000 !
b10000000 '
b10010101 "
b10010101 &
b1111111111111111000000001111001011111111111111111111111111111111111111111111111111111111111111111111111111111111111111111111111111111111111111111111111111111111 #
b10010101 %
#150000
b10000010 !
b10000010 '
b10010110 "
b10010110 &
b1111111111111111000000001111001111111111111111111111111111111111111111111111111111111111111111111111111111111111111111111111111111111111111111111111111111111111 #
b10010110 %
#151000
b10000011 !
b10000011 '
b10010111 "
b10010111 &
b1111111111111111000000001111011111111111111111111111111111111111111111111111111111111111111111111111111111111111111111111111111111111111111111111111111111111111 #
b10010111 %
#152000
b10001001 !
b10001001 '
b10011000 "
b10011000 &
b1111111111111111000000001111111111111111111111111111111111111111111111111111111111111111111111111111111111111111111111111111111111111111111111111111111111111111 #
b10011000 %
#153000
b10001000 !
b10001000 '
b10011001 "
b10011001 &
b1111111111111111000000101111111111111111111111111111111111111111111111111111111111111111111111111111111111111111111111111111111111111111111111111111111111111111 #
b10011001 %
#154000
b10001010 !
b10001010 '
b10011010 "
b10011010 &
b1111111111111111000000111111111111111111111111111111111111111111111111111111111111111111111111111111111111111111111111111111111111111111111111111111111111111111 #
b10011010 %
#155000
b10001011 !
b10001011 '
b10011011 "
b10011011 &
b1111111111111111000001111111111111111111111111111111111111111111111111111111111111111111111111111111111111111111111111111111111111111111111111111111111111111111 #
b10011011 %
#156000
b10001101 !
b10001101 '
b10011100 "
b10011100 &
b1111111111111111000011111111111111111111111111111111111111111111111111111111111111111111111111111111111111111111111111111111111111111111111111111111111111111111 #
b10011100 %
#157000
b10001100 !
b10001100 '
b10011101 "
b10011101 &
b1111111111111111001011111111111111111111111111111111111111111111111111111111111111111111111111111111111111111111111111111111111111111111111111111111111111111111 #
b10011101 %
#158000
b10001110 !
b10001110 '
b10011110 "
b10011110 &
b1111111111111111001111111111111111111111111111111111111111111111111111111111111111111111111111111111111111111111111111111111111111111111111111111111111111111111 #
b10011110 %
#159000
b10001111 !
b10001111 '
b10011111 "
b10011111 &
b1111111111111111011111111111111111111111111111111111111111111111111111111111111111111111111111111111111111111111111111111111111111111111111111111111111111111111 #
b10011111 %
#160000
b10100101 !
b10100101 '
b10100000 "
b10100000 &
b1111111111111111111111111111111111111111111111111111111111111111111111111111111111111111111111111111111111111111111111111111111111111111111111111111111111111111 #
b10100000 %
#161000
b10100100 !
b10100100 '
b10100001 "
b10100001 &
b1000001111111111111111111111111111111111111111111111111111111111111111111111111111111111111111111111111111111111111111111111111111111111111111111111111111111111111111 #
b10100001 %
#162000
b10100110 !
b10100110 '
b10100010 "
b10100010 &
b1100001111111111111111111111111111111111111111111111111111111111111111111111111111111111111111111111111111111111111111111111111111111111111111111111111111111111111111 #
b10100010 %
#163000
b10100111 !
b10100111 '
b10100011 "
b10100011 &
b11100001111111111111111111111111111111111111111111111111111111111111111111111111111111111111111111111111111111111111111111111111111111111111111111111111111111111111111 #
b10100011 %
#164000
b10100001 !
b10100001 '
b10100100 "
b10100100 &
b111100001111111111111111111111111111111111111111111111111111111111111111111111111111111111111111111111111111111111111111111111111111111111111111111111111111111111111111 #
b10100100 %
#165000
b10100000 !
b10100000 '
b10100101 "
b10100101 &
b111100101111111111111111111111111111111111111111111111111111111111111111111111111111111111111111111111111111111111111111111111111111111111111111111111111111111111111111 #
b10100101 %
#166000
b10100010 !
b10100010 '
b10100110 "
b10100110 &
b111100111111111111111111111111111111111111111111111111111111111111111111111111111111111111111111111111111111111111111111111111111111111111111111111111111111111111111111 #
b10100110 %
#167000
b10100011 !
b10100011 '
b10100111 "
b10100111 &
b111101111111111111111111111111111111111111111111111111111111111111111111111111111111111111111111111111111111111111111111111111111111111111111111111111111111111111111111 #
b10100111 %
#168000
b10101001 !
b10101001 '
b10101000 "
b10101000 &
b111111111111111111111111111111111111111111111111111111111111111111111111111111111111111111111111111111111111111111111111111111111111111111111111111111111111111111111111 #
b10101000 %
#169000
b10101000 !
b10101000 '
b10101001 "
b10101001 &
b10111111111111111111111111111111111111111111111111111111111111111111111111111111111111111111111111111111111111111111111111111111111111111111111111111111111111111111111111 #
b10101001 %
#170000
b10101010 !
b10101010 '
b10101010 "
b10101010 &
b11111111111111111111111111111111111111111111111111111111111111111111111111111111111111111111111111111111111111111111111111111111111111111111111111111111111111111111111111 #
b10101010 %
#171000
b10101011 !
b10101011 '
b10101011 "
b10101011 &
b111111111111111111111111111111111111111111111111111111111111111111111111111111111111111111111111111111111111111111111111111111111111111111111111111111111111111111111111111 #
b10101011 %
#172000
b10101101 !
b10101101 '
b10101100 "
b10101100 &
b1111111111111111111111111111111111111111111111111111111111111111111111111111111111111111111111111111111111111111111111111111111111111111111111111111111111111111111111111111 #
b10101100 %
#173000
b10101100 !
b10101100 '
b10101101 "
b10101101 &
b101111111111111111111111111111111111111111111111111111111111111111111111111111111111111111111111111111111111111111111111111111111111111111111111111111111111111111111111111111 #
b10101101 %
#174000
b10101110 !
b10101110 '
b10101110 "
b10101110 &
b111111111111111111111111111111111111111111111111111111111111111111111111111111111111111111111111111111111111111111111111111111111111111111111111111111111111111111111111111111 #
b10101110 %
