sim/v4/ifa_general_memory_guard.vcd
$date
	Fri Jul 10 20:46:23 2026
$end
$version
	Icarus Verilog
$end
$timescale
	1ps
$end
$scope module tb_ifa_general_memory_guard $end
$var wire 32 ! write_count [31:0] $end
$var wire 32 " read_count [31:0] $end
$var wire 8 # mem_read_data [7:0] $end
$var wire 1 $ mem_denied $end
$var wire 1 % mem_allowed $end
$var wire 32 & denied_count [31:0] $end
$var wire 1 ' address_owner $end
$var wire 1 ( address_owned $end
$var wire 1 ) active_write_permission $end
$var wire 1 * active_read_permission $end
$var parameter 32 + ADDR_W $end
$var parameter 32 , WIDTH $end
$var parameter 32 - YARA_COUNT $end
$var parameter 32 . YARA_W $end
$var reg 1 / active_yara $end
$var reg 4 0 admin_address [3:0] $end
$var reg 1 1 admin_yara $end
$var reg 1 2 babalawo_mode $end
$var reg 1 3 clk $end
$var reg 1 4 grant_read_valid $end
$var reg 1 5 grant_write_valid $end
$var reg 4 6 mem_address [3:0] $end
$var reg 1 7 mem_request $end
$var reg 1 8 mem_write $end
$var reg 8 9 mem_write_data [7:0] $end
$var reg 1 : revoke_read_valid $end
$var reg 1 ; revoke_write_valid $end
$var reg 1 < rst $end
$scope module dut $end
$var wire 1 / active_yara $end
$var wire 4 = admin_address [3:0] $end
$var wire 1 1 admin_yara $end
$var wire 1 2 babalawo_mode $end
$var wire 1 3 clk $end
$var wire 1 4 grant_read_valid $end
$var wire 1 5 grant_write_valid $end
$var wire 4 > mem_address [3:0] $end
$var wire 1 7 mem_request $end
$var wire 1 8 mem_write $end
$var wire 8 ? mem_write_data [7:0] $end
$var wire 1 : revoke_read_valid $end
$var wire 1 ; revoke_write_valid $end
$var wire 1 < rst $end
$var parameter 32 @ ADDR_W $end
$var parameter 32 A DEPTH $end
$var parameter 32 B MAX_YARA $end
$var parameter 32 C WIDTH $end
$var parameter 32 D YARA_COUNT $end
$var parameter 32 E YARA_W $end
$var reg 1 * active_read_permission $end
$var reg 1 ) active_write_permission $end
$var reg 1 F active_yara_valid $end
$var reg 1 ( address_owned $end
$var reg 1 ' address_owner $end
$var reg 1 G admin_yara_valid $end
$var reg 32 H denied_count [31:0] $end
$var reg 1 I grant_read_accepted $end
$var reg 1 J grant_write_accepted $end
$var reg 1 % mem_allowed $end
$var reg 1 $ mem_denied $end
$var reg 8 K mem_read_data [7:0] $end
$var reg 32 L read_count [31:0] $end
$var reg 1 M request_can_read $end
$var reg 1 N request_can_write $end
$var reg 1 O request_is_owner $end
$var reg 1 P revoke_read_accepted $end
$var reg 1 Q revoke_write_accepted $end
$var reg 32 R write_count [31:0] $end
$var integer 32 S address_index [31:0] $end
$var integer 32 T yara_index [31:0] $end
$upscope $end
$scope task grant_read $end
$upscope $end
$scope task grant_write $end
$upscope $end
$scope task read_memory $end
$upscope $end
$scope task revoke_read $end
$upscope $end
$scope task write_memory $end
$upscope $end
$upscope $end
$enddefinitions $end
$comment Show the parameter values. $end
$dumpall
b1 E
b10 D
b1000 C
b10 B
b10000 A
b100 @
b1 .
b10 -
b1000 ,
b100 +
$end
#0
$dumpvars
bx T
bx S
bx R
0Q
0P
xO
xN
xM
bx L
bx K
0J
0I
bx H
1G
1F
b0 ?
b0 >
b0 =
1<
0;
0:
b0 9
08
07
b0 6
05
04
03
02
01
b0 0
0/
x*
x)
x(
x'
bx &
x%
x$
bx #
bx "
bx !
$end
#5000
1N
1M
0O
0)
0*
0'
0(
b0 &
b0 H
b0 !
b0 R
b0 "
b0 L
0$
0%
b0 #
b0 K
b10 T
b10000 S
13
#10000
03
#15000
b10 T
b10000 S
13
#20000
03
#25000
b10 T
b10000 S
13
#30000
0<
03
#35000
13
#40000
1N
1M
17
18
b10101010 9
b10101010 ?
b11 6
b11 >
03
#45000
1O
1N
1M
1(
b1 !
b1 R
1%
13
#50000
08
07
03
#55000
0%
13
#60000
0N
0M
0O
17
1/
03
#65000
b1 &
b1 H
1$
13
#70000
07
03
#75000
0$
13
#80000
14
b11 0
b11 =
11
03
#85000
13
#90000
04
03
#95000
13
#100000
17
03
#105000
b10 &
b10 H
1$
13
#110000
12
07
03
#115000
0$
13
#120000
1I
14
03
#125000
1M
1*
13
#130000
0I
02
04
03
#135000
13
#140000
17
03
#145000
b1 "
b1 L
1%
b10101010 #
b10101010 K
13
#150000
07
03
#155000
0%
13
#160000
17
18
b1010101 9
b1010101 ?
03
#165000
b11 &
b11 H
1$
13
#170000
12
08
07
03
#175000
0$
13
#180000
1J
15
03
#185000
1N
1)
1M
1*
13
#190000
0J
02
05
03
#195000
13
#200000
17
18
03
#205000
b10 !
b10 R
1%
13
#210000
08
07
03
#215000
0%
13
#220000
1O
1N
1M
0)
0*
17
0/
03
#225000
b10 "
b10 L
1%
b1010101 #
b1010101 K
13
#230000
12
07
03
#235000
0%
13
#240000
1P
1:
03
#245000
1N
1M
1O
13
#250000
0P
02
0:
03
#255000
13
#260000
1)
1N
0M
0O
17
1/
03
#265000
b100 &
b100 H
1$
b0 #
b0 K
13
#270000
07
03
