sim/v4/ifa_onile_kernel_v4_max2.vcd
$date
	Sat Jul 11 10:57:48 2026
$end
$version
	Icarus Verilog
$end
$timescale
	1ps
$end
$scope module tb_ifa_onile_kernel_v4_max2 $end
$var wire 2 ! yara_valid [1:0] $end
$var wire 2 " yara_running [1:0] $end
$var wire 32 # yara1_misses [31:0] $end
$var wire 32 $ yara1_imports [31:0] $end
$var wire 32 % yara1_hits [31:0] $end
$var wire 32 & yara0_misses [31:0] $end
$var wire 32 ' yara0_imports [31:0] $end
$var wire 32 ( yara0_hits [31:0] $end
$var wire 32 ) switch_count [31:0] $end
$var wire 1 * state_valid $end
$var wire 4 + state_code [3:0] $end
$var wire 1 , rmu_miss $end
$var wire 1 - rmu_hit $end
$var wire 8 . out_y [7:0] $end
$var wire 8 / out_t [7:0] $end
$var wire 8 0 out_rd [7:0] $end
$var wire 8 1 out_ra [7:0] $end
$var wire 8 2 out_r0 [7:0] $end
$var wire 4 3 out_op [3:0] $end
$var wire 1 4 operation_valid $end
$var wire 32 5 memory_write_count [31:0] $end
$var wire 32 6 memory_read_count [31:0] $end
$var wire 32 7 memory_denied_count [31:0] $end
$var wire 8 8 mem_read_data [7:0] $end
$var wire 1 9 mem_denied $end
$var wire 1 : mem_allowed $end
$var wire 32 ; manager_denied_count [31:0] $end
$var wire 1 < lt_flag $end
$var wire 1 = gt_flag $end
$var wire 1 > frame_share_done $end
$var wire 1 ? frame_share_denied $end
$var wire 1 @ frame_share_allowed $end
$var wire 32 A frame_denied_count [31:0] $end
$var wire 32 B frame_allowed_count [31:0] $end
$var wire 1 C exception_valid $end
$var wire 4 D exception_code [3:0] $end
$var wire 1 E eq_flag $end
$var wire 1 F command_denied $end
$var wire 1 G command_allowed $end
$var wire 1 H active_yara $end
$var wire 1 I active_valid $end
$var wire 1 J active_running $end
$var wire 8 K active_pc [7:0] $end
$var wire 16 L active_ir [15:0] $end
$var wire 8 M active_flags [7:0] $end
$var wire 8 N active_b [7:0] $end
$var wire 8 O active_address [7:0] $end
$var wire 8 P active_a [7:0] $end
$var parameter 4 Q EXC_DIV_ZERO $end
$var parameter 32 R IR_WIDTH $end
$var parameter 32 S MAX_YARA $end
$var parameter 32 T MEM_ADDR_W $end
$var parameter 4 U OP_DAGBA $end
$var parameter 4 V OP_GBE $end
$var parameter 4 W OP_JU $end
$var parameter 4 X OP_KERE $end
$var parameter 4 Y OP_KU $end
$var parameter 4 Z OP_PAPO $end
$var parameter 4 [ OP_PIN $end
$var parameter 4 \ OP_SEDA $end
$var parameter 32 ] OP_WIDTH $end
$var parameter 4 ^ OP_YO $end
$var parameter 32 _ RMU_DEPTH $end
$var parameter 4 ` STATE_POWER_EXTENDED $end
$var parameter 32 a WIDTH $end
$var parameter 32 b YARA_W $end
$var reg 1 c babalawo_mode $end
$var reg 1 d clk $end
$var reg 1 e command_yara $end
$var reg 1 f context_write $end
$var reg 1 g create_valid $end
$var reg 1 h destroy_valid $end
$var reg 8 i execute_a [7:0] $end
$var reg 8 j execute_b [7:0] $end
$var reg 4 k execute_op [3:0] $end
$var reg 1 l execute_valid $end
$var reg 1 m frame_admin_destination $end
$var reg 1 n frame_admin_source $end
$var reg 1 o frame_grant_valid $end
$var reg 1 p frame_revoke_valid $end
$var reg 1 q frame_share_destination $end
$var reg 1 r frame_share_request $end
$var reg 1 s frame_share_source $end
$var reg 1 t last_command_allowed $end
$var reg 1 u last_command_denied $end
$var reg 1 v last_mem_allowed $end
$var reg 1 w last_mem_denied $end
$var reg 8 x last_mem_read_data [7:0] $end
$var reg 1 y last_share_allowed $end
$var reg 1 z last_share_denied $end
$var reg 1 { last_share_done $end
$var reg 4 | mem_address [3:0] $end
$var reg 4 } mem_admin_address [3:0] $end
$var reg 1 ~ mem_admin_yara $end
$var reg 1 !" mem_grant_read_valid $end
$var reg 1 "" mem_grant_write_valid $end
$var reg 1 #" mem_request $end
$var reg 1 $" mem_revoke_read_valid $end
$var reg 1 %" mem_revoke_write_valid $end
$var reg 1 &" mem_write $end
$var reg 8 '" mem_write_data [7:0] $end
$var reg 1 (" pause_valid $end
$var reg 1 )" resume_valid $end
$var reg 1 *" rst $end
$var reg 1 +" sampled_eq_flag $end
$var reg 4 ," sampled_exception_code [3:0] $end
$var reg 1 -" sampled_exception_valid $end
$var reg 1 ." sampled_gt_flag $end
$var reg 1 /" sampled_lt_flag $end
$var reg 1 0" sampled_operation_valid $end
$var reg 4 1" sampled_out_op [3:0] $end
$var reg 8 2" sampled_out_t [7:0] $end
$var reg 8 3" sampled_out_y [7:0] $end
$var reg 4 4" sampled_state_code [3:0] $end
$var reg 1 5" sampled_state_valid $end
$var reg 1 6" select_valid $end
$var reg 8 7" write_a [7:0] $end
$var reg 8 8" write_address [7:0] $end
$var reg 8 9" write_b [7:0] $end
$var reg 8 :" write_flags [7:0] $end
$var reg 16 ;" write_ir [15:0] $end
$var reg 8 <" write_pc [7:0] $end
$scope module dut $end
$var wire 1 c babalawo_mode $end
$var wire 1 d clk $end
$var wire 1 e command_yara $end
$var wire 1 f context_write $end
$var wire 1 g create_valid $end
$var wire 1 h destroy_valid $end
$var wire 8 =" execute_a [7:0] $end
$var wire 8 >" execute_b [7:0] $end
$var wire 4 ?" execute_op [3:0] $end
$var wire 1 l execute_valid $end
$var wire 1 m frame_admin_destination $end
$var wire 1 n frame_admin_source $end
$var wire 1 o frame_grant_valid $end
$var wire 1 p frame_revoke_valid $end
$var wire 1 q frame_share_destination $end
$var wire 1 r frame_share_request $end
$var wire 1 s frame_share_source $end
$var wire 4 @" mem_address [3:0] $end
$var wire 4 A" mem_admin_address [3:0] $end
$var wire 1 ~ mem_admin_yara $end
$var wire 1 !" mem_grant_read_valid $end
$var wire 1 "" mem_grant_write_valid $end
$var wire 1 #" mem_request $end
$var wire 1 $" mem_revoke_read_valid $end
$var wire 1 %" mem_revoke_write_valid $end
$var wire 1 &" mem_write $end
$var wire 8 B" mem_write_data [7:0] $end
$var wire 1 (" pause_valid $end
$var wire 1 )" resume_valid $end
$var wire 1 *" rst $end
$var wire 1 6" select_valid $end
$var wire 8 C" write_a [7:0] $end
$var wire 8 D" write_address [7:0] $end
$var wire 8 E" write_b [7:0] $end
$var wire 8 F" write_flags [7:0] $end
$var wire 16 G" write_ir [15:0] $end
$var wire 8 H" write_pc [7:0] $end
$var wire 2 I" yara_valid [1:0] $end
$var wire 2 J" yara_running [1:0] $end
$var wire 32 K" yara1_misses [31:0] $end
$var wire 32 L" yara1_imports [31:0] $end
$var wire 32 M" yara1_hits [31:0] $end
$var wire 32 N" yara0_misses [31:0] $end
$var wire 32 O" yara0_imports [31:0] $end
$var wire 32 P" yara0_hits [31:0] $end
$var wire 32 Q" switch_count [31:0] $end
$var wire 1 , rmu_miss $end
$var wire 1 - rmu_hit $end
$var wire 8 R" out_y [7:0] $end
$var wire 8 S" out_t [7:0] $end
$var wire 8 T" out_rd [7:0] $end
$var wire 8 U" out_ra [7:0] $end
$var wire 8 V" out_r0 [7:0] $end
$var wire 4 W" out_op [3:0] $end
$var wire 32 X" memory_write_count [31:0] $end
$var wire 32 Y" memory_read_count [31:0] $end
$var wire 32 Z" memory_denied_count [31:0] $end
$var wire 8 [" mem_read_data [7:0] $end
$var wire 1 9 mem_denied $end
$var wire 1 : mem_allowed $end
$var wire 32 \" manager_denied_count [31:0] $end
$var wire 1 > frame_share_done $end
$var wire 1 ? frame_share_denied $end
$var wire 1 @ frame_share_allowed $end
$var wire 1 ]" frame_fabric_denied $end
$var wire 1 ^" frame_explicit_permission $end
$var wire 32 _" frame_denied_count [31:0] $end
$var wire 32 `" frame_allowed_count [31:0] $end
$var wire 1 a" fabric_state_valid $end
$var wire 4 b" fabric_state_code [3:0] $end
$var wire 1 c" fabric_operation_valid $end
$var wire 1 d" fabric_lt_flag $end
$var wire 1 e" fabric_gt_flag $end
$var wire 1 f" fabric_exception_valid $end
$var wire 4 g" fabric_exception_code [3:0] $end
$var wire 1 h" fabric_eq_flag $end
$var wire 1 F command_denied $end
$var wire 1 G command_allowed $end
$var wire 2 i" clear_yara [1:0] $end
$var wire 1 j" address_owner $end
$var wire 1 k" address_owned $end
$var wire 1 H active_yara $end
$var wire 1 l" active_write_permission $end
$var wire 1 I active_valid $end
$var wire 1 J active_running $end
$var wire 1 m" active_read_permission $end
$var wire 8 n" active_pc [7:0] $end
$var wire 16 o" active_ir [15:0] $end
$var wire 8 p" active_flags [7:0] $end
$var wire 8 q" active_b [7:0] $end
$var wire 8 r" active_address [7:0] $end
$var wire 8 s" active_a [7:0] $end
$var parameter 32 t" IR_WIDTH $end
$var parameter 32 u" MAX_YARA $end
$var parameter 32 v" MEM_ADDR_W $end
$var parameter 32 w" OP_WIDTH $end
$var parameter 32 x" RMU_DEPTH $end
$var parameter 32 y" WIDTH $end
$var parameter 32 z" YARA_W $end
$var reg 1 {" context_write_guarded $end
$var reg 1 E eq_flag $end
$var reg 4 |" exception_code [3:0] $end
$var reg 1 C exception_valid $end
$var reg 1 }" execute_guarded $end
$var reg 1 = gt_flag $end
$var reg 1 < lt_flag $end
$var reg 1 ~" mem_request_guarded $end
$var reg 1 4 operation_valid $end
$var reg 4 !# state_code [3:0] $end
$var reg 1 * state_valid $end
$scope module context_bank $end
$var wire 1 d clk $end
$var wire 1 {" context_write $end
$var wire 1 *" rst $end
$var wire 8 "# write_a [7:0] $end
$var wire 8 ## write_address [7:0] $end
$var wire 8 $# write_b [7:0] $end
$var wire 8 %# write_flags [7:0] $end
$var wire 16 &# write_ir [15:0] $end
$var wire 8 '# write_pc [7:0] $end
$var wire 2 (# clear_yara [1:0] $end
$var wire 1 H active_yara $end
$var parameter 32 )# IR_WIDTH $end
$var parameter 32 *# MAX_YARA $end
$var parameter 32 +# WIDTH $end
$var parameter 32 ,# YARA_COUNT $end
$var parameter 32 -# YARA_W $end
$var reg 1 .# active_yara_valid $end
$var reg 8 /# read_a [7:0] $end
$var reg 8 0# read_address [7:0] $end
$var reg 8 1# read_b [7:0] $end
$var reg 8 2# read_flags [7:0] $end
$var reg 16 3# read_ir [15:0] $end
$var reg 8 4# read_pc [7:0] $end
$var integer 32 5# context_index [31:0] $end
$upscope $end
$scope module frame_supervisor $end
$var wire 1 m admin_destination_yara $end
$var wire 1 n admin_source_yara $end
$var wire 1 c babalawo_mode $end
$var wire 1 d clk $end
$var wire 1 o grant_valid $end
$var wire 1 q request_destination_yara $end
$var wire 1 s request_source_yara $end
$var wire 1 p revoke_valid $end
$var wire 1 *" rst $end
$var wire 1 r share_request $end
$var parameter 32 6# MAX_YARA $end
$var parameter 32 7# YARA_COUNT $end
$var parameter 32 8# YARA_W $end
$var reg 1 9# admin_destination_valid $end
$var reg 1 :# admin_source_valid $end
$var reg 32 ;# allowed_count [31:0] $end
$var reg 32 <# denied_count [31:0] $end
$var reg 1 ^" explicit_permission $end
$var reg 1 =# grant_accepted $end
$var reg 1 ># local_access $end
$var reg 1 ?# request_destination_valid $end
$var reg 1 @# request_source_valid $end
$var reg 1 A# revoke_accepted $end
$var reg 1 @ share_allowed $end
$var reg 1 ? share_denied $end
$var integer 32 B# destination_index [31:0] $end
$var integer 32 C# source_index [31:0] $end
$upscope $end
$scope module memory_guard $end
$var wire 4 D# admin_address [3:0] $end
$var wire 1 ~ admin_yara $end
$var wire 1 c babalawo_mode $end
$var wire 1 d clk $end
$var wire 1 !" grant_read_valid $end
$var wire 1 "" grant_write_valid $end
$var wire 4 E# mem_address [3:0] $end
$var wire 1 ~" mem_request $end
$var wire 1 &" mem_write $end
$var wire 8 F# mem_write_data [7:0] $end
$var wire 1 $" revoke_read_valid $end
$var wire 1 %" revoke_write_valid $end
$var wire 1 *" rst $end
$var wire 1 H active_yara $end
$var parameter 32 G# ADDR_W $end
$var parameter 32 H# DEPTH $end
$var parameter 32 I# MAX_YARA $end
$var parameter 32 J# WIDTH $end
$var parameter 32 K# YARA_COUNT $end
$var parameter 32 L# YARA_W $end
$var reg 1 m" active_read_permission $end
$var reg 1 l" active_write_permission $end
$var reg 1 M# active_yara_valid $end
$var reg 1 k" address_owned $end
$var reg 1 j" address_owner $end
$var reg 1 N# admin_yara_valid $end
$var reg 32 O# denied_count [31:0] $end
$var reg 1 P# grant_read_accepted $end
$var reg 1 Q# grant_write_accepted $end
$var reg 1 : mem_allowed $end
$var reg 1 9 mem_denied $end
$var reg 8 R# mem_read_data [7:0] $end
$var reg 32 S# read_count [31:0] $end
$var reg 1 T# request_can_read $end
$var reg 1 U# request_can_write $end
$var reg 1 V# request_is_owner $end
$var reg 1 W# revoke_read_accepted $end
$var reg 1 X# revoke_write_accepted $end
$var reg 32 Y# write_count [31:0] $end
$var integer 32 Z# address_index [31:0] $end
$var integer 32 [# yara_index [31:0] $end
$upscope $end
$scope module relation_fabric $end
$var wire 8 \# A [7:0] $end
$var wire 8 ]# B [7:0] $end
$var wire 1 d clk $end
$var wire 4 ^# execute_op [3:0] $end
$var wire 1 }" in_valid $end
$var wire 1 *" rst $end
$var wire 1 @ share_authorized $end
$var wire 1 r share_commit $end
$var wire 1 q share_destination_yara $end
$var wire 1 s share_source_yara $end
$var wire 2 _# room_miss [1:0] $end
$var wire 2 `# room_import_done [1:0] $end
$var wire 2 a# room_hit [1:0] $end
$var wire 8 b# rau_y [7:0] $end
$var wire 1 c# rau_valid $end
$var wire 8 d# rau_t [7:0] $end
$var wire 1 e# rau_state_valid $end
$var wire 4 f# rau_state_code [3:0] $end
$var wire 8 g# rau_rd [7:0] $end
$var wire 8 h# rau_ra [7:0] $end
$var wire 8 i# rau_r0 [7:0] $end
$var wire 1 j# rau_lt_flag $end
$var wire 1 k# rau_gt_flag $end
$var wire 1 l# rau_exception_valid $end
$var wire 4 m# rau_exception_code [3:0] $end
$var wire 1 n# rau_eq_flag $end
$var wire 2 o# clear_yara [1:0] $end
$var wire 1 H active_yara $end
$var parameter 32 p# DEPTH $end
$var parameter 32 q# MAX_YARA $end
$var parameter 32 r# OP_WIDTH $end
$var parameter 32 s# WIDTH $end
$var parameter 32 t# YARA_COUNT $end
$var parameter 32 u# YARA_W $end
$var reg 1 v# active_yara_valid $end
$var reg 1 w# delegation_allowed $end
$var reg 1 x# destination_yara_valid $end
$var reg 1 h" eq_flag $end
$var reg 4 y# exception_code [3:0] $end
$var reg 1 f" exception_valid $end
$var reg 1 e" gt_flag $end
$var reg 1 d" lt_flag $end
$var reg 1 c" operation_valid $end
$var reg 4 z# out_op [3:0] $end
$var reg 8 {# out_r0 [7:0] $end
$var reg 8 |# out_ra [7:0] $end
$var reg 8 }# out_rd [7:0] $end
$var reg 8 ~# out_t [7:0] $end
$var reg 8 !$ out_y [7:0] $end
$var reg 1 - rmu_hit $end
$var reg 1 , rmu_miss $end
$var reg 2 "$ room_import_valid [1:0] $end
$var reg 2 #$ room_req_valid [1:0] $end
$var reg 1 ]" share_denied $end
$var reg 1 > share_done $end
$var reg 4 $$ share_op [3:0] $end
$var reg 8 %$ share_r0 [7:0] $end
$var reg 8 &$ share_ra [7:0] $end
$var reg 8 '$ share_rd [7:0] $end
$var reg 8 ($ share_t [7:0] $end
$var reg 8 )$ share_y [7:0] $end
$var reg 1 *$ source_yara_valid $end
$var reg 4 +$ state_code [3:0] $end
$var reg 1 a" state_valid $end
$var reg 32 ,$ yara0_hits [31:0] $end
$var reg 32 -$ yara0_imports [31:0] $end
$var reg 32 .$ yara0_misses [31:0] $end
$var reg 32 /$ yara1_hits [31:0] $end
$var reg 32 0$ yara1_imports [31:0] $end
$var reg 32 1$ yara1_misses [31:0] $end
$var integer 32 2$ destination_index [31:0] $end
$var integer 32 3$ done_index [31:0] $end
$var integer 32 4$ request_index [31:0] $end
$scope begin generate_local_rmu[0] $end
$var wire 1 5$ room_reset $end
$var parameter 2 6$ yara_index $end
$scope module local_rmu $end
$var wire 1 7$ admin_import_valid $end
$var wire 4 8$ admin_op [3:0] $end
$var wire 8 9$ admin_r0 [7:0] $end
$var wire 8 :$ admin_ra [7:0] $end
$var wire 8 ;$ admin_rd [7:0] $end
$var wire 8 <$ admin_t [7:0] $end
$var wire 8 =$ admin_y [7:0] $end
$var wire 1 d clk $end
$var wire 4 >$ in_op [3:0] $end
$var wire 1 ?$ req_valid $end
$var wire 1 5$ rst $end
$var wire 8 @$ in_y [7:0] $end
$var wire 8 A$ in_t [7:0] $end
$var wire 8 B$ in_rd [7:0] $end
$var wire 8 C$ in_ra [7:0] $end
$var wire 8 D$ in_r0 [7:0] $end
$var parameter 32 E$ DEPTH $end
$var parameter 32 F$ OP_WIDTH $end
$var parameter 32 G$ PTR_W $end
$var parameter 32 H$ WIDTH $end
$var reg 1 I$ admin_found $end
$var reg 4 J$ admin_index [3:0] $end
$var reg 32 K$ evict_count [31:0] $end
$var reg 1 L$ hit $end
$var reg 32 M$ hit_count [31:0] $end
$var reg 32 N$ import_count [31:0] $end
$var reg 1 O$ import_done $end
$var reg 1 P$ lookup_found $end
$var reg 4 Q$ lookup_index [3:0] $end
$var reg 1 R$ miss $end
$var reg 32 S$ miss_count [31:0] $end
$var reg 4 T$ out_op [3:0] $end
$var reg 8 U$ out_r0 [7:0] $end
$var reg 8 V$ out_ra [7:0] $end
$var reg 8 W$ out_rd [7:0] $end
$var reg 8 X$ out_t [7:0] $end
$var reg 8 Y$ out_y [7:0] $end
$var reg 32 Z$ store_count [31:0] $end
$var reg 4 [$ write_ptr [3:0] $end
$var integer 32 \$ admin_i [31:0] $end
$var integer 32 ]$ lookup_i [31:0] $end
$var integer 32 ^$ reset_i [31:0] $end
$upscope $end
$upscope $end
$scope begin generate_local_rmu[1] $end
$var wire 1 _$ room_reset $end
$var parameter 2 `$ yara_index $end
$scope module local_rmu $end
$var wire 1 a$ admin_import_valid $end
$var wire 4 b$ admin_op [3:0] $end
$var wire 8 c$ admin_r0 [7:0] $end
$var wire 8 d$ admin_ra [7:0] $end
$var wire 8 e$ admin_rd [7:0] $end
$var wire 8 f$ admin_t [7:0] $end
$var wire 8 g$ admin_y [7:0] $end
$var wire 1 d clk $end
$var wire 4 h$ in_op [3:0] $end
$var wire 1 i$ req_valid $end
$var wire 1 _$ rst $end
$var wire 8 j$ in_y [7:0] $end
$var wire 8 k$ in_t [7:0] $end
$var wire 8 l$ in_rd [7:0] $end
$var wire 8 m$ in_ra [7:0] $end
$var wire 8 n$ in_r0 [7:0] $end
$var parameter 32 o$ DEPTH $end
$var parameter 32 p$ OP_WIDTH $end
$var parameter 32 q$ PTR_W $end
$var parameter 32 r$ WIDTH $end
$var reg 1 s$ admin_found $end
$var reg 4 t$ admin_index [3:0] $end
$var reg 32 u$ evict_count [31:0] $end
$var reg 1 v$ hit $end
$var reg 32 w$ hit_count [31:0] $end
$var reg 32 x$ import_count [31:0] $end
$var reg 1 y$ import_done $end
$var reg 1 z$ lookup_found $end
$var reg 4 {$ lookup_index [3:0] $end
$var reg 1 |$ miss $end
$var reg 32 }$ miss_count [31:0] $end
$var reg 4 ~$ out_op [3:0] $end
$var reg 8 !% out_r0 [7:0] $end
$var reg 8 "% out_ra [7:0] $end
$var reg 8 #% out_rd [7:0] $end
$var reg 8 $% out_t [7:0] $end
$var reg 8 %% out_y [7:0] $end
$var reg 32 &% store_count [31:0] $end
$var reg 4 '% write_ptr [3:0] $end
$var integer 32 (% admin_i [31:0] $end
$var integer 32 )% lookup_i [31:0] $end
$var integer 32 *% reset_i [31:0] $end
$upscope $end
$upscope $end
$scope begin generate_yara0_stats $end
$upscope $end
$scope begin generate_yara1_stats $end
$upscope $end
$scope module shared_rau $end
$var wire 8 +% A [7:0] $end
$var wire 8 ,% B [7:0] $end
$var wire 8 -% R0 [7:0] $end
$var wire 8 .% RA [7:0] $end
$var wire 8 /% RD [7:0] $end
$var wire 4 0% op [3:0] $end
$var parameter 4 1% EXC_DIV_ZERO $end
$var parameter 4 2% EXC_NONE $end
$var parameter 4 3% EXC_UNIMPLEMENTED $end
$var parameter 4 4% OP_DAGBA $end
$var parameter 4 5% OP_GBE $end
$var parameter 4 6% OP_JU $end
$var parameter 4 7% OP_KERE $end
$var parameter 4 8% OP_KU $end
$var parameter 4 9% OP_PAPO $end
$var parameter 4 :% OP_PIN $end
$var parameter 4 ;% OP_SEDA $end
$var parameter 32 <% OP_WIDTH $end
$var parameter 4 =% OP_YO $end
$var parameter 4 >% STATE_NONE $end
$var parameter 4 ?% STATE_POWER_EXTENDED $end
$var parameter 32 @% WIDTH $end
$var reg 8 A% T [7:0] $end
$var reg 8 B% Y [7:0] $end
$var reg 9 C% add_full [8:0] $end
$var reg 1 n# eq_flag $end
$var reg 4 D% exception_code [3:0] $end
$var reg 1 l# exception_valid $end
$var reg 1 k# gt_flag $end
$var reg 1 j# lt_flag $end
$var reg 16 E% mul_full [15:0] $end
$var reg 16 F% power_acc [15:0] $end
$var reg 24 G% power_product [23:0] $end
$var reg 4 H% state_code [3:0] $end
$var reg 1 e# state_valid $end
$var reg 9 I% sub_full [8:0] $end
$var reg 1 c# valid $end
$var integer 32 J% power_index [31:0] $end
$upscope $end
$upscope $end
$scope module yara_manager $end
$var wire 1 c babalawo_mode $end
$var wire 1 d clk $end
$var wire 1 e command_yara $end
$var wire 1 g create_valid $end
$var wire 1 h destroy_valid $end
$var wire 1 (" pause_valid $end
$var wire 1 )" resume_valid $end
$var wire 1 *" rst $end
$var wire 1 6" select_valid $end
$var parameter 32 K% MAX_YARA $end
$var parameter 32 L% YARA_COUNT $end
$var parameter 32 M% YARA_W $end
$var reg 1 J active_running $end
$var reg 1 I active_valid $end
$var reg 1 H active_yara $end
$var reg 1 N% active_yara_in_range $end
$var reg 2 O% clear_yara [1:0] $end
$var reg 1 G command_allowed $end
$var reg 1 F command_denied $end
$var reg 1 P% command_yara_valid $end
$var reg 32 Q% denied_count [31:0] $end
$var reg 32 R% switch_count [31:0] $end
$var reg 2 S% yara_running [1:0] $end
$var reg 2 T% yara_valid [1:0] $end
$upscope $end
$upscope $end
$scope task administer_frame_permission $end
$upscope $end
$scope task execute_and_sample_status $end
$upscope $end
$scope task execute_relation $end
$upscope $end
$scope task lifecycle_command $end
$upscope $end
$scope task memory_access $end
$upscope $end
$scope task share_frame $end
$upscope $end
$scope task write_context $end
$upscope $end
$upscope $end
$enddefinitions $end
$comment Show the parameter values. $end
$dumpall
b1 M%
b10 L%
b10 K%
b1000 @%
b1 ?%
b0 >%
b1 =%
b100 <%
b110 ;%
b11 :%
b0 9%
b100 8%
b1000 7%
b111 6%
b101 5%
b10 4%
b1 3%
b0 2%
b10 1%
b1000 r$
b100 q$
b100 p$
b10000 o$
b1 `$
b1000 H$
b100 G$
b100 F$
b10000 E$
b0 6$
b1 u#
b10 t#
b1000 s#
b100 r#
b10 q#
b10000 p#
b1 L#
b10 K#
b1000 J#
b10 I#
b10000 H#
b100 G#
b1 8#
b10 7#
b10 6#
b1 -#
b10 ,#
b1000 +#
b10 *#
b10000 )#
b1 z"
b1000 y"
b10000 x"
b100 w"
b100 v"
b10 u"
b10000 t"
b1 b
b1000 a
b1 `
b10000 _
b1 ^
b100 ]
b110 \
b11 [
b0 Z
b100 Y
b1000 X
b111 W
b101 V
b10 U
b100 T
b10 S
b10000 R
b10 Q
$end
#0
$dumpvars
bx T%
bx S%
bx R%
bx Q%
1P%
bx O%
xN%
bx J%
b0 I%
b0 H%
b0 G%
b1 F%
b0 E%
b0 D%
b0 C%
b0 B%
b0 A%
b0 0%
b0 /%
b0 .%
b11111111 -%
b0 ,%
b0 +%
bx *%
b10000 )%
b10000 (%
bx '%
bx &%
bx %%
bx $%
bx #%
bx "%
bx !%
bx ~$
bx }$
x|$
b0 {$
0z$
xy$
bx x$
bx w$
xv$
bx u$
b0 t$
0s$
b11111111 n$
b0 m$
b0 l$
b0 k$
b0 j$
0i$
b0 h$
bx g$
bx f$
bx e$
bx d$
bx c$
bx b$
0a$
1_$
bx ^$
b10000 ]$
b10000 \$
bx [$
bx Z$
bx Y$
bx X$
bx W$
bx V$
bx U$
bx T$
bx S$
xR$
b0 Q$
0P$
xO$
bx N$
bx M$
xL$
bx K$
b0 J$
0I$
b11111111 D$
b0 C$
b0 B$
b0 A$
b0 @$
0?$
b0 >$
bx =$
bx <$
bx ;$
bx :$
bx 9$
bx 8$
07$
15$
bx 4$
bx 3$
bx 2$
bx 1$
bx 0$
bx /$
bx .$
bx -$
bx ,$
b0 +$
1*$
bx )$
bx ($
bx '$
bx &$
bx %$
bx $$
b0 #$
b0 "$
bx !$
bx ~#
bx }#
bx |#
bx {#
bx z#
b0 y#
1x#
0w#
xv#
bx o#
0n#
b0 m#
0l#
0k#
0j#
b11111111 i#
b0 h#
b0 g#
b0 f#
0e#
b0 d#
1c#
b0 b#
bx a#
bx `#
bx _#
b0 ^#
b0 ]#
b0 \#
bx [#
bx Z#
bx Y#
0X#
0W#
0V#
0U#
0T#
bx S#
bx R#
0Q#
0P#
bx O#
1N#
xM#
b0 F#
b0 E#
b0 D#
bx C#
bx B#
0A#
1@#
1?#
1>#
0=#
bx <#
bx ;#
1:#
19#
bx 5#
b0 4#
b0 3#
b0 2#
b0 1#
b0 0#
b0 /#
x.#
bx (#
b0 '#
b0 &#
b0 %#
b0 $#
b0 ##
b0 "#
b0 !#
0~"
0}"
b0 |"
0{"
b0 s"
b0 r"
b0 q"
b0 p"
b0 o"
b0 n"
0m"
0l"
xk"
xj"
bx i"
0h"
b0 g"
0f"
0e"
0d"
0c"
b0 b"
0a"
bx `"
bx _"
0^"
0]"
bx \"
bx ["
bx Z"
bx Y"
bx X"
bx W"
bx V"
bx U"
bx T"
bx S"
bx R"
bx Q"
bx P"
bx O"
bx N"
bx M"
bx L"
bx K"
bx J"
bx I"
b0 H"
b0 G"
b0 F"
b0 E"
b0 D"
b0 C"
b0 B"
b0 A"
b0 @"
b0 ?"
b0 >"
b0 ="
b0 <"
b0 ;"
b0 :"
b0 9"
b0 8"
b0 7"
06"
x5"
bx 4"
bx 3"
bx 2"
bx 1"
x0"
x/"
x."
x-"
bx ,"
x+"
1*"
0)"
0("
b0 '"
0&"
0%"
0$"
0#"
0""
0!"
0~
b0 }
b0 |
0{
0z
0y
b0 x
0w
0v
0u
0t
0s
0r
0q
0p
0o
0n
0m
0l
b0 k
b0 j
b0 i
0h
0g
0f
0e
0d
0c
b0 P
b0 O
b0 N
b0 M
b0 L
b0 K
0J
0I
xH
xG
xF
0E
b0 D
0C
bx B
bx A
0@
0?
x>
0=
0<
bx ;
x:
x9
bx 8
bx 7
bx 6
bx 5
04
bx 3
bx 2
bx 1
bx 0
bx /
bx .
x-
x,
b0 +
0*
bx )
bx (
bx '
bx &
bx %
bx $
bx #
bx "
bx !
$end
#5000
1U#
1T#
1.#
1M#
1v#
1N%
b10000 \$
b10000 ]$
b10000 (%
b10000 )%
b0 $
b0 L"
b0 0$
b0 #
b0 K"
b0 1$
b0 %
b0 M"
b0 /$
b0 '
b0 O"
b0 -$
b0 &
b0 N"
b0 .$
b0 (
b0 P"
b0 ,$
b0 ($
b0 <$
b0 f$
b0 %$
b0 9$
b0 c$
b0 '$
b0 ;$
b0 e$
b0 &$
b0 :$
b0 d$
b0 )$
b0 =$
b0 g$
b0 $$
b0 8$
b0 b$
b10 3$
0>
b0 /
b0 S"
b0 ~#
b0 2
b0 V"
b0 {#
b0 0
b0 T"
b0 }#
b0 1
b0 U"
b0 |#
b0 .
b0 R"
b0 !$
b0 3
b0 W"
b0 z#
0,
0-
0j"
0k"
b0 ;
b0 \"
b0 Q%
b0 )
b0 Q"
b0 R%
0F
0G
b0 i"
b0 (#
b0 o#
b0 O%
b0 "
b0 J"
b0 S%
b0 !
b0 I"
b0 T%
0H
b0 A
b0 _"
b0 <#
b0 B
b0 `"
b0 ;#
b0 [$
b0 N$
b0 K$
b0 Z$
b0 S$
b0 M$
b0 X$
b0 U$
b0 W$
b0 V$
b0 Y$
b0 T$
0O$
0R$
0L$
b0 '%
b0 x$
b0 u$
b0 &%
b0 }$
b0 w$
b0 $%
b0 !%
b0 #%
b0 "%
b0 %%
b0 ~$
b0 `#
0y$
b0 _#
0|$
b0 a#
0v$
b0 7
b0 Z"
b0 O#
b0 5
b0 X"
b0 Y#
b0 6
b0 Y"
b0 S#
09
0:
b0 8
b0 ["
b0 R#
b10 5#
b10 B#
b10 C#
b10000 ^$
b10000 *%
b10 [#
b10000 Z#
1d
#10000
0d
#15000
b10 [#
b10000 Z#
b10000 *%
b10000 ^$
b10 B#
b10 C#
b10 5#
1d
#20000
0d
#25000
b10 5#
b10 B#
b10 C#
b10000 ^$
b10000 *%
b10 [#
b10000 Z#
1d
#30000
05$
0_$
1c
0*"
0d
#35000
b10 5#
1d
#40000
1g
0d
#45000
15$
1J
1I
1G
b1 i"
b1 (#
b1 o#
b1 O%
b1 "
b1 J"
b1 S%
b1 !
b1 I"
b1 T%
b10 5#
1d
#46000
1t
#50000
0g
0d
#55000
05$
0G
b0 i"
b0 (#
b0 o#
b0 O%
b10000 ^$
b10 5#
1d
#60000
1g
1e
0d
#65000
1_$
1J
1I
1G
b10 i"
b10 (#
b10 o#
b10 O%
b11 "
b11 J"
b11 S%
b11 !
b11 I"
b11 T%
b10 5#
1d
#70000
0g
0d
#75000
0_$
0G
b0 i"
b0 (#
b0 o#
b0 O%
b10000 *%
b10 5#
1d
#80000
16"
0e
0d
#85000
b1 )
b1 Q"
b1 R%
1G
b10 5#
1d
#90000
06"
0d
#95000
0G
b10 5#
1d
#100000
1{"
1f
b1000100 :"
b1000100 F"
b1000100 %#
b110011 8"
b110011 D"
b110011 ##
b100010 9"
b100010 E"
b100010 $#
b10001 7"
b10001 C"
b10001 "#
b1010000000000001 ;"
b1010000000000001 G"
b1010000000000001 &#
b10000 <"
b10000 H"
b10000 '#
0d
